{
	"id": "cb256619-1dde-4745-8ab5-fc6eab95fa23",
	"name": "Production",
	"values": [
		{
			"key": "baseUrl",
			"value": "http://production.eba-fmgqsa8e.us-east-1.elasticbeanstalk.com/",
			"enabled": true
		}
	],
	"_postman_variable_scope": "environment",
	"_postman_exported_at": "2023-03-05T03:18:40.369Z",
	"_postman_exported_using": "Postman/10.11.1"
}